270585 237536 407
641285 681181 442
840583 951996 507
188197 583315 470
413864 469101 444
914727 1031 525
366390 591219 470
144885 807671 509
157902 936121 525
366473 482256 449
417136 501342 444
779308 432659 509
12389 491819 449
989009 360317 525
775869 970886 525
89817 616238 470
878176 994452 507
556177 197689 470
667365 810416 504
781078 129545 509
393002 802568 509
775506 177048 509
189422 23636 383
828024 754930 468
490887 740868 509
779607 63284 509
852832 930756 476
416567 803360 509
833614 454557 509
640448 66210 509
994095 495654 525
765954 535505 509
967474 341392 525
295357 138896 443
311367 970239 525
362877 989904 525
741838 679731 504
381805 317888 441
589552 485947 470
43751 866541 525
98563 32519 351
478423 382027 449
966336 844590 507
55063 486555 449
907864 228267 525
584591 684602 509
989832 472300 525
870412 494927 525
134412 530583 470
636691 129146 509
288765 983722 525
830500 727283 468
198627 949703 525
563813 318567 470
394172 13401 443
477406 349481 449
611418 752665 509
172494 677399 509
896617 259129 525
51132 301638 443
527356 389579 470
574133 256285 470
344908 152484 443
851074 309909 525
252859 753941 509
107050 755533 509
727052 431396 509
847961 617165 525
268603 652573 509
833511 105712 509
700381 230740 509
344473 669477 509
198241 544136 470
688905 189245 509
459605 649042 509
709265 273140 509
627934 352499 509
987029 956160 458
952764 159097 525
73413 773253 509
326758 584137 470
320964 859962 525
150595 662794 509
630418 325607 509
156078 979407 525
543281 39405 470
83255 680429 509
587452 294243 470
336392 507284 449
564958 274373 470
716224 721091 411
965386 286561 525
553369 140654 470
710956 777791 468
321494 792679 509
696380 476363 509
603227 53799 470
895262 724586 525
742945 421396 509
597129 188110 470
176359 333656 443
823184 51277 509
594236 844751 525
491898 159794 449
544449 175555 470
836050 39432 509
652453 513324 509
762618 756564 380
85283 705793 509
839637 483892 525
61683 26254 340
222395 660476 509
906824 943493 507
667595 497639 509
211681 773069 509
318170 314123 353
722383 810182 468
733216 32574 509
709015 993161 525
594216 399586 470
342629 568967 470
855416 551925 525
628919 958198 525
905722 456105 525
886176 208869 525
543800 940724 525
465066 181462 449
174288 762875 509
496757 136568 449
769566 653350 504
140294 394299 443
74756 174374 383
299550 318949 384
833654 689378 504
495756 109464 449
101717 958351 525
284407 355615 441
589760 399145 470
139959 139775 251
234655 414050 449
364665 194541 443
167524 642176 509
239990 219444 443
541183 937394 525
650132 241932 509
985701 936797 507
26067 415544 449
805870 710799 468
928851 995844 507
240770 877851 525
366648 126227 443
951072 765624 525
1393 535969 470
859317 402941 525
943694 812075 525
524601 586300 452
330621 427557 449
103529 769834 509
496614 330237 449
888474 189583 525
49116 647166 509
352269 661187 509
44923 411107 449
159729 901228 525
4167 371550 443
225015 314570 443
649207 34449 509
732348 743210 424
768938 577192 509
466292 960417 525
126497 940332 525
616498 39258 470
510998 925219 525
748724 417894 509
703463 565473 509
201237 872495 525
91528 659588 509
272166 875800 525
188808 639837 509
447640 310850 449
184679 923738 525
903775 771584 525
604829 836532 509
899093 408989 525
600135 725010 509
373677 787836 509
935368 320229 525
605407 223795 470
39089 586456 470
687215 340277 509
771856 166931 509
905379 689585 525
700742 738357 504
359607 11394 443
910441 155335 525
723234 387857 509
262053 223375 443
205858 577791 470
532342 742572 509
782508 815750 468
538122 971165 525
97230 102679 341
417708 572047 470
596418 989819 525
950477 516971 525
306798 463800 449
486509 489100 382
948539 879368 507
734470 115970 509
324012 685959 509
780674 925381 525
667114 776662 504
729651 603137 509
852143 295574 525
250454 537613 470
435756 151722 449
160723 151232 383
403871 955315 525
402741 672072 509
480383 213635 449
208532 751733 509
436613 656119 509
29551 834636 509
53914 58732 322
101314 410535 449
496115 620629 470
826711 472767 509
721872 603125 509
655169 795735 504
376990 411265 449
517106 213423 470
888405 17529 525
25905 7682 282
635558 543850 509
81395 916907 525
137634 707566 509
967169 305774 525
472371 760327 509
9922 752591 509
415584 429189 418
222708 351908 443
683616 351217 509
102567 555922 470
758976 370309 509
249455 248958 350
325262 958082 525
101865 870505 525
930904 640234 525
40656 182713 383
750910 499501 509
708853 331411 509
358154 970570 525
85185 46647 351
770907 836926 468
686911 356140 509
