446761 280583 449
372201 363481 392
700917 105833 509
284321 762051 509
224987 665010 509
384412 978133 525
550115 203745 470
373433 448346 449
719427 30122 509
614062 20658 470
587869 875485 525
764658 233546 509
395281 857132 525
128561 866913 525
820498 863944 525
250443 500002 449
5739 759215 509
860848 711544 525
875721 131331 525
238996 886611 525
36772 222579 386
789751 523732 509
941816 664278 525
41899 745238 509
817614 489850 509
133392 503263 449
8996 732292 509
179473 672229 509
739678 362254 509
19806 383259 443
304541 873960 525
13195 583294 470
247659 715452 509
675981 40294 509
568874 285064 470
264386 134715 443
333082 110868 443
636295 400500 509
683770 586834 509
640921 128014 509
919598 259523 525
458518 785675 509
414667 21920 449
362668 814903 509
335423 864261 525
955560 901273 507
952000 675057 525
494589 867979 525
372007 136287 443
694771 891644 525
520657 9587 470
404470 244978 441
167024 907933 525
901734 831372 525
96649 656325 509
749650 34704 509
814311 832618 450
584580 138590 470
30405 545438 470
580452 345419 470
771227 413896 509
147293 844738 525
602498 492900 470
495900 716400 509
18632 426929 449
210668 580761 470
903785 495986 525
383575 331013 441
941700 225202 525
195819 854290 525
588032 5812 470
650452 19539 509
63801 580032 470
340620 85029 443
201099 304393 443
374027 320923 441
222366 758318 509
762551 796551 468
355534 709914 509
163322 298410 443
710915 123271 509
900895 952134 507
447128 400218 449
596024 851317 525
589259 93482 470
79795 407199 443
224492 798642 509
683039 498712 509
51150 403693 443
538455 643457 509
170690 318334 443
578602 191195 470
128334 12787 354
592554 699416 509
137891 922690 525
839761 295094 525
158222 411870 449
457604 740574 509
45711 694492 509
140404 558528 470
493027 905069 525
208503 772049 509
412032 833142 509
636389 409501 509
785922 837163 468
426292 781240 509
731878 346335 509
825863 344314 509
577600 168843 470
818705 224554 509
245566 220006 443
924858 893327 476
135413 330270 443
444531 126943 449
843838 16837 525
637082 523356 509
840131 113229 525
758532 449841 509
706491 273403 509
633544 100710 509
661493 310012 509
824627 813954 450
776953 751526 468
431404 240002 449
313582 432150 449
287232 703100 509
567870 96732 470
260182 786261 509
558437 384472 470
465126 927878 525
170566 858159 525
715778 512172 509
997304 739691 525
390111 27441 443
220208 898624 525
960093 551051 525
140415 798832 509
846945 563830 525
999257 758257 525
129661 20836 354
335793 53577 443
933652 470999 525
925984 667562 525
151887 860821 525
500384 322693 449
812543 296718 509
979159 470977 525
489677 12436 449
868710 559616 525
708976 159163 509
766854 218622 509
241069 464102 449
497986 539984 470
271953 500205 449
244369 773344 509
404956 139979 443
567439 892233 525
621815 426556 470
8368 546459 470
573683 629512 509
456278 231283 449
54279 404239 443
832079 315922 509
417775 633907 509
737123 594742 509
950996 412477 525
686265 438578 509
598719 839453 525
334926 833900 509
835689 190777 509
519900 631193 509
256571 826070 509
764317 471588 509
477235 883775 525
153459 432429 449
590379 209456 470
524542 797210 509
145885 92678 375
240089 769839 509
495032 50770 449
671398 957464 525
758733 508534 509
366914 819723 509
856858 438143 525
581308 653734 509
247956 475403 449
244516 334003 407
442026 94926 449
3344 172072 383
416689 404334 449
195797 697119 509
396907 981748 525
416346 476476 444
527592 558030 452
263442 80903 443
939154 441458 525
754880 460675 509
346378 154497 443
876703 987583 507
551407 279749 470
45196 386938 443
934139 132503 525
155605 832535 509
806647 822654 450
728318 38093 509
230111 261624 443
144914 190999 383
632023 261677 509
578983 549362 421
646257 799453 504
307569 144614 443
868612 689179 525
704734 131560 509
160433 933799 525
401762 77843 443
181955 452134 449
136890 846912 525
906202 740849 525
237993 334057 407
402732 953715 525
145607 382576 443
539252 142365 470
933709 543866 525
949228 872611 507
254333 560184 470
133995 890707 525
466369 312615 449
395307 959741 525
150507 42662 375
226379 715841 509
658290 357344 509
90945 628413 509
981346 795116 525
853235 695891 525
92774 102827 341
184915 885923 525
519071 784725 509
757029 969314 525
248881 739524 509
722124 517683 509
100806 934088 525
275330 156926 443
206644 886259 525
386643 910256 525
409630 801877 509
417797 621484 470
191414 26003 383
797274 862727 525
993925 293941 525
371689 984909 525
114114 605987 470
95194 33309 351
