275995 7074 443
244180 803822 509
279115 789277 509
350223 494909 449
69462 159045 383
705615 37065 509
652101 717286 504
954305 174654 525
567780 377267 470
875683 217223 525
888928 349134 525
293943 430810 449
478016 268520 449
876773 202830 525
361369 305394 441
271061 907781 525
765061 929685 525
388347 317171 441
277703 724467 509
955117 569670 525
591817 608588 403
662224 166370 509
984377 351109 525
20905 863909 525
656873 286973 509
733238 447048 509
789385 986224 525
143308 152901 370
754870 960173 525
829693 924756 525
240794 482029 449
206426 856327 525
61438 194547 383
641348 2625 509
125626 575638 470
449964 225734 449
462786 50445 449
443139 908978 525
997063 392351 525
926364 975704 507
311721 127719 443
712657 424547 509
356381 709859 509
399442 234687 441
725980 944404 525
75038 848116 525
948252 93414 525
789028 155699 509
393689 804281 509
284120 448007 449
565681 835058 509
228060 175384 386
467493 594643 470
283409 459951 449
972852 29475 525
105191 188474 383
649718 635771 416
479887 593373 470
16959 744431 509
684095 29898 509
90962 813389 509
460325 843993 525
17744 519566 470
621809 169464 470
520232 544972 408
200970 416130 449
741896 210711 509
485195 42745 449
327312 499551 449
511876 97185 449
312726 771273 509
122394 850031 525
826975 754108 468
323285 959385 525
109414 938717 525
419071 284055 449
922955 600309 525
646359 787633 504
559891 778358 509
327529 802046 509
111064 948716 525
622851 93826 470
345863 72867 443
938950 77667 525
286873 379897 441
10218 721270 509
603914 890694 525
959096 902155 507
178182 937333 525
525485 770010 509
977135 67345 525
754572 611835 509
706888 281854 509
320758 655702 509
206516 259605 443
958769 857798 507
227231 345069 443
206706 269433 443
964620 982361 458
247708 231607 381
806877 993652 525
480754 377094 449
896966 636883 525
578271 220893 470
255821 778887 509
912690 163215 525
783274 73701 509
682812 108645 509
957181 870564 507
738454 676547 504
937905 290714 525
910521 327874 525
567828 1092 470
899309 902253 401
162951 680923 509
395735 938355 525
886276 320707 525
198890 561240 470
369149 113783 443
265994 313641 407
988929 24639 525
152737 809573 509
47040 116831 354
902808 462469 525
460572 34432 449
350797 963917 525
265051 26213 443
538540 83279 470
159324 439022 449
827548 240103 509
440807 980483 525
904280 176759 525
656853 616632 509
343355 673379 509
453577 257458 449
514113 941136 525
606059 690271 509
679461 334751 509
646992 180108 509
856533 24246 525
433174 396322 449
366831 524211 470
414568 360994 449
771107 773401 393
946921 100073 525
520308 117008 470
606948 160218 470
290636 433764 449
448156 228389 449
875591 111678 525
784157 590721 509
635097 173556 509
746833 261566 509
48247 85831 351
844305 549266 525
518691 401694 470
902415 116867 525
827345 206108 509
374283 83620 443
603047 341511 470
842201 178104 525
727423 141898 509
158182 954341 525
372682 215844 443
871167 964775 507
660825 897445 525
112609 73543 354
669988 644482 442
385989 143337 443
962978 250591 525
503362 684138 509
919669 777915 525
648585 2549 509
798952 424627 509
500484 785147 509
267904 578268 470
343883 919204 525
906317 453307 525
365275 107531 443
317251 297307 384
486927 596017 470
103950 637242 509
601938 703472 509
750406 941834 525
395051 192974 443
698614 973051 525
980865 579685 525
883551 212596 525
509507 464786 426
131372 664013 509
767884 109692 509
652705 913803 525
715003 137694 509
312337 129803 443
110666 300267 443
79453 155242 375
37753 326021 443
329602 158642 443
959056 310258 525
237196 826690 509
131687 355348 443
887928 256277 525
105208 865677 525
34169 779519 509
6242 774858 509
843361 489003 525
616737 487144 470
405844 839966 525
925380 719126 525
172798 314189 443
564487 948762 525
688065 950357 525
421672 554277 470
872907 446402 525
256887 859871 525
959296 262953 525
84735 792176 509
918914 589120 525
988997 72703 525
533342 307201 470
375039 995235 525
234404 549818 470
337490 916019 525
289317 569565 470
99799 837782 509
732154 962401 525
599579 461734 470
829105 450937 509
250352 237833 368
119598 905520 525
765035 296679 509
867781 264041 525
863745 991729 507
392284 253671 441
957207 397550 525
9312 91697 351
402009 829028 509
239675 52364 443
753646 452673 509
284498 517382 470
916937 594151 525
944617 265980 525
831479 799162 450
182725 92905 383
756336 795807 468
412726 680822 509
553701 98819 470
167965 15113 383
431018 178764 449
420451 93472 449
265928 24795 443
282026 655766 509
232784 28623 443
606987 366304 470
350822 83893 443
