319273 123258 443
967483 135256 525
48343 685535 509
590868 967449 525
532773 876617 525
119699 748250 509
671860 578397 509
529326 324960 470
806133 109134 509
944730 53921 525
37252 883588 525
998131 696901 525
849861 914349 476
548687 589150 434
876305 520513 525
270338 694238 509
813747 912869 525
912196 940843 507
678456 997574 525
552230 790842 509
706613 332095 509
478508 329063 449
933917 859371 476
91 310404 443
528823 343058 470
803287 337818 509
372094 403755 436
81766 183355 383
604503 648547 509
917598 919485 339
94323 666291 509
95500 230100 386
90469 882810 525
294306 869876 525
565220 619415 447
756324 673534 504
772618 739609 468
757300 794081 468
975185 802605 525
581537 419421 470
45761 655019 509
944297 7876 525
414861 88093 449
260949 767287 509
994883 875931 507
843019 955188 507
193672 720070 509
449774 514188 470
677119 237285 509
383152 766061 509
300522 54036 443
254105 82551 443
400931 729843 509
635415 260540 509
262249 808720 509
221686 15737 386
755921 711327 424
271538 35421 443
923204 499365 525
708892 62916 509
602061 228189 470
625691 924048 525
197403 830932 509
49848 323741 443
354170 243613 441
368778 191387 443
550623 248522 470
993281 835130 525
320736 356508 441
108482 891765 525
182627 739592 509
667507 450687 509
833126 401698 509
723437 837125 468
237532 35117 443
822442 91473 509
457703 523607 470
175904 315151 443
437117 825494 509
270207 852381 525
750488 777096 468
276740 305894 389
740926 106462 509
257330 368194 441
598667 284456 470
985236 966330 458
837721 377192 509
684694 245714 509
353178 160135 443
45945 845235 525
251913 166295 443
825738 940666 525
408820 966176 525
493095 258976 449
722240 664319 504
812239 668079 504
777187 83228 509
218354 845729 525
407382 860327 525
129751 541879 470
772953 287012 509
14531 815134 509
569016 958062 525
87217 729888 509
781857 269304 509
240409 775219 509
736205 837607 468
969135 448583 525
622229 549945 447
719867 437757 509
141095 84139 354
764280 980041 525
947508 629754 525
730560 339563 509
138842 226310 386
925669 634817 525
680275 832094 504
557266 436344 470
868705 759926 525
684381 761732 504
911296 631859 525
269464 583778 470
352805 276873 441
704523 983801 525
107816 269809 443
375138 673478 509
158291 636120 509
176849 643507 509
799396 374533 509
688471 947212 525
727500 72267 509
795500 439748 509
702460 930775 525
566624 87581 470
762660 296396 509
817104 30874 509
624330 114248 470
453352 421239 418
234601 565698 470
481043 296308 449
30118 730761 509
123756 822540 509
652942 290957 509
408491 966065 525
485713 488101 382
632288 378930 509
262025 373717 441
853506 389488 525
109442 233822 443
525303 33138 470
472525 500496 426
549115 756729 509
735727 266270 509
758685 452489 509
717946 410363 509
425825 126003 449
170066 275830 443
772065 929789 525
771704 378095 509
864266 239854 525
495055 532553 470
402569 901927 525
548691 818650 509
422293 408726 449
123222 954873 525
556192 729480 509
539061 597381 452
901957 312093 525
904202 485672 525
653379 634511 416
375942 90818 443
537950 623664 452
12566 494580 449
387697 599369 470
393003 648450 509
361412 443629 449
157598 422270 449
897875 720989 525
316773 560385 470
682300 818544 504
167653 68022 383
431536 907609 525
438076 348968 449
541914 818156 509
202660 923242 525
529586 423761 470
789445 542109 509
916444 442349 525
602426 185908 470
261150 698545 509
162312 914658 525
230590 757218 509
430261 514953 470
145419 264968 443
36740 767034 509
596027 119714 470
315415 898599 525
894391 226541 525
909679 168871 525
820876 684280 504
291069 640487 509
678915 667093 385
563971 62612 470
56325 936275 525
268538 53847 443
85919 176744 383
592155 460900 470
293794 786453 509
329257 211599 443
427677 933903 525
974298 946747 458
254351 104530 443
867533 534967 525
557843 116939 470
114832 838652 525
619055 266296 470
923473 602979 525
814759 154242 509
157456 839032 525
599933 748128 509
936867 44897 525
442550 85504 449
422207 333010 449
791297 51473 509
282058 360808 441
9884 513655 470
192811 858112 525
317724 253321 407
342242 279359 389
555506 191170 470
484838 202819 449
762815 485525 509
642413 28381 509
748118 404804 509
464906 669739 509
941011 468272 525
812393 301311 509
698171 153563 509
501183 208662 449
939830 50046 525
904964 793756 525
116325 403573 443
357661 516349 470
190602 744055 509
52285 451026 449
234267 353133 441
761703 786652 468
369151 997958 525
500322 588437 470
