567924 41729 470
248192 843184 525
366777 77459 443
993924 414696 525
421679 72305 449
411246 484336 444
509718 237527 449
114276 682800 509
88843 271670 443
125603 444606 449
875273 762213 525
848920 529946 525
453981 812399 509
805110 983344 525
255891 625573 470
597177 831995 509
131362 434459 449
129561 605293 470
147716 426089 449
982758 122269 525
453459 318284 449
448260 156514 449
920632 347474 525
901767 690042 525
710991 582906 509
10982 487884 449
140661 185658 383
697971 205002 509
343062 620458 470
33296 432253 449
164566 79973 383
139710 779030 509
484418 900840 525
497984 399501 449
685821 666232 385
231833 681070 509
541897 790791 509
99488 672704 509
57532 655564 509
945387 579268 525
814455 237875 509
503810 550230 470
822059 421205 509
416140 896714 525
863251 932691 476
135952 423353 449
873309 446603 525
693762 695935 367
905293 610445 525
853011 645569 525
349736 748789 509
474438 542534 470
754069 643740 504
131330 17723 354
231689 56019 443
603447 122612 470
280338 446426 449
429053 234649 449
572772 923924 525
273950 935315 525
967798 783571 525
80493 243780 443
671200 40239 509
287445 21573 443
611080 210684 470
637264 285152 509
400306 467700 449
620829 922179 525
806781 216419 509
657363 509256 509
488246 212007 449
772802 240824 509
394321 564464 470
882389 302162 525
916741 557606 525
357386 45352 443
302959 226312 443
685130 582794 509
791364 87347 509
668413 749526 504
982450 238054 525
365745 75662 443
720375 519139 509
25536 385678 443
750332 137727 509
388030 275235 441
8882 214736 383
766449 904089 525
3679 186896 383
3844 943516 525
86549 927944 525
645511 207526 509
716754 969658 525
538411 219072 470
100708 361531 443
925574 472044 525
893700 59197 525
652946 461308 509
288906 469108 449
985721 643237 525
337547 623858 470
80680 81592 320
455996 972474 525
623156 234775 470
835514 412383 509
387049 640256 509
240428 626639 509
41310 368204 443
810725 613182 509
968285 178977 525
14757 180412 383
347583 194934 443
334313 330761 353
556593 520601 452
891020 957891 507
44824 57950 340
771951 364473 509
581630 390835 470
254988 30323 443
939070 135066 525
293900 810649 509
703293 903557 525
322068 636359 509
647605 720562 504
44005 339448 443
754736 155788 509
934393 700723 525
399414 574586 470
330591 388224 441
409814 982952 525
534823 612867 452
574799 788433 509
504536 737420 509
682342 836917 504
161013 636393 509
987868 845734 507
415338 63717 449
261178 973886 525
175938 410331 449
309614 215761 443
274612 460504 449
678498 573623 509
375211 54408 443
379444 601403 470
663041 902248 525
749358 155351 509
475342 869016 525
977765 14959 525
34124 777004 509
420412 311704 449
394848 351476 436
219895 982978 525
121759 52837 354
458334 981420 525
91702 389787 443
407879 497828 449
785961 631448 504
110154 904103 525
220943 893463 525
501402 542209 470
892565 740654 525
712331 167798 509
107756 297635 443
318094 655727 509
821246 608872 509
816294 512169 509
108889 329253 443
147304 158176 383
555240 196541 470
943755 912713 507
155596 764585 509
794854 136453 509
635758 991717 525
926955 139088 525
613359 782260 509
303033 263161 407
468766 784068 509
987688 185141 525
168184 73505 383
37181 77718 351
679941 514868 509
28906 436103 449
912442 681699 525
406149 326910 441
536651 607433 452
313105 729106 509
365374 209467 443
969626 740701 525
902440 473191 525
41024 887677 525
561698 984853 525
305010 689526 509
843185 957762 507
591142 543660 452
302569 367563 441
1391 857537 525
250118 275177 407
621106 822557 509
365314 808130 509
730781 940609 525
379854 627596 509
279786 83335 443
329678 805095 509
312980 771537 509
351058 746569 509
979216 298224 525
99032 275443 443
228282 13367 386
634166 827997 504
283458 595158 470
850961 817076 525
239381 331317 407
456289 529726 470
907042 878880 445
521720 603261 452
748408 231445 509
289208 602547 470
636915 2716 509
275953 255356 407
167988 919831 525
810115 452949 509
260202 592993 470
332965 376172 441
90315 46548 351
846042 603729 525
248741 621085 470
540864 113506 470
380119 19409 443
976010 938127 507
907170 442183 525
297269 406972 441
744470 604343 509
511142 309339 449
367557 879785 525
575031 307401 470
567846 505227 470
379933 209466 443
516935 52189 470
27656 109492 354
55794 604496 470
738036 605366 509
994228 174559 525
290220 532370 470
922883 571036 525
261125 506279 449
451781 391583 449
777903 995395 525
464330 660206 509
