108054 373163 443
923525 554883 525
407977 260131 441
640480 480745 509
350076 981036 525
847176 180369 525
269938 616593 470
127864 627444 509
527798 25086 470
34916 179199 383
687301 680303 398
92918 171018 383
16032 394193 443
402351 530274 470
382786 444400 449
760774 693864 504
864190 377089 525
546450 765967 509
479818 616020 470
243763 117764 443
437905 96721 449
368457 53687 443
130699 413363 449
103856 535057 470
44969 172558 383
361126 471321 449
396547 754210 509
17227 251030 443
229261 792875 509
970415 840382 507
686403 14874 509
525577 922993 525
455842 967771 525
348607 852703 525
20112 424591 449
941919 426755 525
905472 658682 525
245119 265022 407
999236 612691 525
94574 407436 443
673457 939071 525
578516 489672 470
953589 84306 525
892892 643415 525
293896 475419 449
345140 786475 509
924919 68289 525
505815 341839 449
681867 440949 509
581667 171725 470
561666 76776 470
123037 512712 470
914692 349177 525
157564 799362 509
40734 545058 470
946965 548246 525
692001 801297 504
619991 3580 470
392978 428556 449
461811 705601 509
147302 211949 383
74975 376243 443
459189 929181 525
324398 764367 509
637814 734657 504
206171 566002 470
491020 305598 449
846432 695130 525
688241 501089 509
902002 505022 525
239967 249459 368
587698 754302 509
295365 837897 525
879905 573598 525
660835 496969 509
31428 488961 449
392317 784960 509
992022 630427 525
888594 99425 525
657600 514878 509
292841 322107 384
635566 350318 509
663920 775752 504
278209 923387 525
978024 763084 525
656880 898328 525
578871 443984 470
192675 863271 525
33584 237096 443
412679 303475 449
107452 813332 509
246918 197384 443
525064 19567 470
447170 225712 449
766286 206622 509
787935 104681 509
139939 636804 509
354778 555640 470
946135 105994 525
524721 131343 470
609865 440722 470
102227 757748 509
209867 273462 443
442223 475769 444
705149 442242 509
750164 512618 509
593021 610877 403
554573 371126 470
617936 631820 509
251199 332139 407
642064 482502 509
651499 366780 509
370939 759003 509
904825 642902 525
587019 693590 509
258411 1850 443
374099 973340 525
168908 656028 509
63744 973963 525
146400 131945 375
815267 555460 509
115954 657790 509
820889 367275 509
767719 126916 509
62475 258716 443
371606 772980 509
119458 298195 443
767645 291175 509
175615 110097 383
107959 694789 509
935235 341679 525
265385 606566 470
395946 390196 405
298222 222581 443
815009 716817 468
138541 291862 443
184311 237549 443
929579 979545 507
693901 649710 442
405966 861338 525
578264 862820 525
323706 744258 509
271261 923137 525
754378 285952 509
623050 118358 470
226064 760369 509
531356 34187 470
688158 129436 509
728506 163553 509
51425 782032 509
622110 887562 525
881634 234322 525
649437 828004 504
426429 154404 449
60973 934252 525
604900 557943 434
37602 929178 525
870942 921071 476
122896 584479 470
756807 131750 509
693760 330559 509
145549 584247 470
217694 415988 449
622994 391861 470
287906 406974 441
464290 484400 413
746985 535491 509
139256 377090 443
465514 125303 449
959479 181487 525
335044 202498 443
458284 796671 509
425355 265293 449
783322 220630 509
439076 755520 509
752215 291803 509
606013 748896 509
834288 265466 509
996749 310242 525
857108 491801 525
819937 54218 509
852332 507043 525
913956 793193 525
96138 513453 470
958777 79245 525
912841 121340 525
831068 515713 509
794147 377145 509
311519 435314 449
766711 735249 424
111660 307148 443
702098 193286 509
644165 561998 509
705809 56889 509
440438 988262 525
920959 192629 525
464757 144931 449
15293 932346 525
48982 577306 470
271422 584274 470
198522 260251 443
582752 465608 470
573063 553120 421
658501 959776 525
193119 26235 383
996912 376226 525
51775 41582 314
498814 948258 525
807989 132178 509
725125 419471 509
382464 544301 470
317332 649950 509
885473 171816 525
32352 230283 386
646356 562108 509
