553433 445872
87508 379701
801723 794441
675194 884774
707767 691096
149080 139791
820620 666957
442738 907490
167854 833139
599704 735691
890008 289858
11056 380627
289534 417600
519478 827554
518241 246216
741685 308715
961173 971564
674133 141868
309825 481585
988041 665551
838131 88776
616556 707028
731910 64747
152297 51004
3942 327769
292962 544775
178852 622915
959532 933373
21900 511775
503806 832541
220706 66668
458817 942991
290266 810798
927100 374370
950109 678120
15747 230909
526573 673186
923022 629836
956268 461987
219215 727822
807748 908478
314089 917371
493777 440424
221840 974530
89881 549893
147513 202096
75321 227626
11602 161164
551463 610321
220577 450969
480605 618652
797845 563923
544787 192406
237478 256901
471545 104496
68226 375810
359569 647444
653571 900
222428 475771
914950 477360
377496 729866
258044 561022
746626 417995
365670 305800
578395 318258
263946 681272
827366 706475
668105 625932
386218 456094
207554 540675
14398 627090
218032 789048
221589 983198
282453 350431
771701 111823
513763 704835
965657 892889
608149 374570
661090 927131
43067 622272
39315 477220
135621 167170
691065 451267
326791 381851
853244 846145
551456 503732
443711 761981
620273 309692
652928 656619
595610 223741
847869 104299
479151 234836
121369 458990
884872 737564
730069 477316
883329 318145
883621 539784
181882 895681
952081 135833
192561 895224
386928 501221
918927 271124
632825 223660
850450 632531
477175 752428
870786 803722
92048 230469
525190 752643
558795 793732
843231 473600
116398 477589
382662 518664
933714 520263
967940 928833
828399 638916
241936 445704
845771 172263
164970 689886
838909 784688
472768 73998
138608 302676
106270 319459
654764 774578
847500 622641
324653 85755
216506 241509
179459 158266
227948 491591
358557 344681
103277 563994
748830 434429
277323 487923
236387 955698
475994 114009
635440 624794
547436 31064
167489 667176
813646 616540
756834 72849
38134 320264
378752 912314
897237 570445
618514 352926
666429 943758
550281 491835
402640 454177
638466 424607
795298 316162
972718 800902
651891 901977
673948 373860
909346 266946
451140 481399
25630 57729
144213 93366
80341 327967
706821 835878
291273 184048
491203 583222
842523 4180
787906 66674
523267 223960
547872 442025
904682 411253
475987 194112
550992 322997
86709 657277
566153 560559
155386 980695
904719 509247
860252 451280
474786 264031
620586 111109
677191 713911
657448 317409
891837 678201
197207 567910
284347 656868
974295 142078
39026 577191
848576 314976
705020 241515
823944 423620
14161 973322
472409 200271
667892 848211
712223 750719
750907 444744
818557 110541
454402 762934
307697 91650
208929 178581
383600 762431
219437 707768
637848 306781
114458 999963
984620 106714
929091 911331
607567 535906
954070 592170
727884 578423
134163 264128
564560 725798
161892 57061
775151 292920
348022 585388
428806 151883
447712 333802
725030 599245
483718 909187
255073 960566
456933 452685
545823 243516
906797 938437
343855 727724
234125 258128
115634 27557
26462 56084
